{
    "page": 2,
    "per_page": 3,
    "total": 12,
    "total_pages": 4,
    "data": [
        {
		  "verify": false,
		  "date":"2018-08-19T12:12:12",
          "type":,
            "id": 4,
            "first_name": "Eve",
            "last_name": "Holt",
            "avatar": "https://s3.amazonaws.com/uifaces/faces/twitter/marcoramires/128.jpg"
        },
        {
            "verify" : true,
            "date":"2018-07-19T12:12:12",
            "type":2,
            "id": 5,
            "first_name": "Charles",
            "last_name": "Morris",
            "avatar": "https://s3.amazonaws.com/uifaces/faces/twitter/stephenmoon/128.jpg"
        },
        {
            "date":"2018-11-19T12:12:12",
            "type":5,
            "id": 6,
            "first_name": "Tracey",
            "last_name": "Ramos",
            "avatar": "https://s3.amazonaws.com/uifaces/faces/twitter/bigmancho/128.jpg"
        }
    ]
}
